{
  "_id": {
    "$oid": "5dc2b1d128c7e364f96721f2"
  },
  "landing": false,
  "public": true,
  "id": "wac_rn_4.0",
  "type": "guide",
  "pdf_link": "/release-wac/release-wac-4.0.pdf",
  "html_link": "",
  "name": "Sippo wac release notes",
  "label_name": "Release Notes",
  "description": "",
  "product": "Wac",
  "version": "4.0",
  "__v": 0
} {
  "_id": {
    "$oid": "5dc2b24128c7e364f96721f3"
  },
  "landing": false,
  "public": true,
  "id": "wac_admin_4.0",
  "type": "guide",
  "pdf_link": "/sippo-admin/html/_sources/sippo-wac-admin-guide.pdf",
  "html_link": "/sippo-admin/html/",
  "name": "Sippo wac administrator guide",
  "label_name": "Administrator guide",
  "description": "Intended for adminstrators and integrators",
  "product": "Wac",
  "version": "4.0",
  "__v": 0
} {
  "_id": {
    "$oid": "5dc2b29d28c7e364f96721f4"
  },
  "landing": false,
  "public": true,
  "id": "sdk_js_4.0",
  "type": "sdk",
  "pdf_link": "",
  "html_link": "/sippo-sdk_js/JT/html/",
  "name": "SippoSDK Javascript",
  "label_name": "Javascript SDK guide",
  "description": "For web Sippo applications",
  "product": "Wac",
  "version": "4.0",
  "__v": 0
} {
  "_id": {
    "$oid": "5dc2b57e28c7e364f96721f5"
  },
  "landing": false,
  "public": true,
  "id": "sdk_ios_4.0",
  "type": "sdk",
  "pdf_link": "",
  "html_link": "/sippo-sdk_ios/html/",
  "name": "SippoSDK iOS",
  "label_name": "iOS SDK guide",
  "description": "For native iOS Sippo applications",
  "product": "Wac",
  "version": "4.0",
  "__v": 0
} {
  "_id": {
    "$oid": "5dc2b5a628c7e364f96721f6"
  },
  "landing": false,
  "public": true,
  "id": "sdk_and_4.0",
  "type": "sdk",
  "pdf_link": "",
  "html_link": "/sippo-sdk_and/html/",
  "name": "SippoSDK Android",
  "label_name": "Android SDK guide",
  "description": "For native Android Sippo applications",
  "product": "Wac",
  "version": "4.0",
  "__v": 0
} {
  "_id": {
    "$oid": "5dc2b5b028c7e364f96721f7"
  },
  "landing": true,
  "public": true,
  "id": "wac_api_rest_4.0",
  "type": "api",
  "pdf_link": "",
  "html_link": "/sippo-api_rest/",
  "name": "Sippo REST API",
  "label_name": "REST API guide",
  "description": "For third party apps that consume Sippo wac information and management",
  "product": "Wac",
  "version": "4.0",
  "__v": 0
} {
  "_id": {
    "$oid": "5dc2b5bc28c7e364f96721f8"
  },
  "landing": false,
  "public": true,
  "id": "wac_man_admin_4.0",
  "type": "guide",
  "pdf_link": "/sippo-manager/html/_sources/sippo-manager-user-guide.pdf",
  "html_link": "/sippo-manager/html/",
  "name": "Sippo Manager user guide",
  "label_name": "Manager admin guide",
  "description": "For final Sippo manager users",
  "product": "Wac",
  "version": "4.0",
  "__v": 0
} {
  "_id": {
    "$oid": "5dc2b5c528c7e364f96721f9"
  },
  "landing": false,
  "public": true,
  "id": "collab_rn_4.0",
  "type": "guide",
  "pdf_link": "/release-collab/release-collab-4.0.pdf",
  "html_link": "",
  "name": "Sippo collaborator release notes",
  "label_name": "Release Notes",
  "description": "",
  "product": "Collaborator",
  "version": "4.0",
  "__v": 0
} {
  "_id": {
    "$oid": "5dc2b5cf28c7e364f96721fa"
  },
  "landing": false,
  "public": true,
  "id": "collab_admin_4.0",
  "type": "guide",
  "pdf_link": "/sippo-collab_admin/html/_sources/sippo-collab_admin.pdf",
  "html_link": "/sippo-collab_admin/html/",
  "name": "Sippo collaborator administrator guide",
  "label_name": "Administrator guide",
  "description": "Intended for final Sippo collaborator administrators",
  "product": "Collaborator",
  "version": "4.0",
  "__v": 0
} {
  "_id": {
    "$oid": "5dc2b5da28c7e364f96721fb"
  },
  "landing": false,
  "public": true,
  "id": "collab_user_4.0",
  "type": "guide",
  "pdf_link": "/sippo-collab/html/_sources/sippo-collab-user-guide.pdf",
  "html_link": "/sippo-collab/html/",
  "name": "Sippo collaborator user guide",
  "label_name": "User guide",
  "description": "Intended for final Sippo collaborator users",
  "product": "Collaborator",
  "version": "4.0",
  "__v": 0
} {
  "_id": {
    "$oid": "5dc2b5e728c7e364f96721fc"
  },
  "landing": false,
  "public": true,
  "id": "wac_rn_3.1",
  "type": "guide",
  "pdf_link": "",
  "html_link": "",
  "name": "Sippo wac release notes",
  "label_name": "Release Notes",
  "description": "",
  "product": "Wac",
  "version": "3.1",
  "__v": 0
} {
  "_id": {
    "$oid": "5dc2b5ee28c7e364f96721fd"
  },
  "landing": false,
  "public": true,
  "id": "collab_rn_3.1",
  "type": "guide",
  "pdf_link": "",
  "html_link": "",
  "name": "Sippo collaborator release notes",
  "label_name": "Release Notes",
  "description": "",
  "product": "Collaborator",
  "version": "3.1",
  "__v": 0
} {
  "_id": {
    "$oid": "5dc2b5f628c7e364f96721fe"
  },
  "landing": false,
  "public": true,
  "id": "collab_admin_3.1",
  "type": "guide",
  "pdf_link": "/sippo-collab_admin/latexpdf/sippo-collab_admin.pdf",
  "html_link": "/sippo-collab_admin/html/index.html",
  "name": "Sippo collaborator administrator guide",
  "label_name": "Administrator guide",
  "description": "Intended for final Sippo collaborator administrators",
  "product": "Collaborator",
  "version": "3.1",
  "__v": 0
} {
  "_id": {
    "$oid": "5dc2b5fd28c7e364f96721ff"
  },
  "landing": false,
  "public": true,
  "id": "collab_user_3.1",
  "type": "guide",
  "pdf_link": "/sippo-collab/latexpdf/sippo-collab-user-guide.pdf",
  "html_link": "/sippo-collab/html/index.html",
  "name": "Sippo collaborator user guide",
  "label_name": "User guide",
  "description": "Intended for final Sippo collaborator users",
  "product": "Collaborator",
  "version": "3.1",
  "__v": 0
} {
  "_id": {
    "$oid": "5dc2b60328c7e364f9672200"
  },
  "landing": false,
  "public": true,
  "id": "wac_admin_3.1",
  "type": "guide",
  "pdf_link": "/sippo-admin/latexpdf/sippo-wac-admin-guide.pdf",
  "html_link": "/sippo-admin/html/index.html",
  "name": "Sippo wac administrator guide",
  "label_name": "Administrator guide",
  "description": "Intended for adminstrators and integrators",
  "product": "Wac",
  "version": "3.1",
  "__v": 0
} {
  "_id": {
    "$oid": "5dc2b60b28c7e364f9672201"
  },
  "landing": false,
  "public": true,
  "id": "wac_ref_3.1",
  "type": "guide",
  "pdf_link": "/sippo-ref/latexpdf/sippo-wac-ref-guide.pdf",
  "html_link": "/sippo-ref/html/index.html",
  "name": "Sippo wac reference guide",
  "label_name": "Reference guide",
  "description": "Intended for developers and integrators",
  "product": "Wac",
  "version": "3.1",
  "__v": 0
} {
  "_id": {
    "$oid": "5dc2b61328c7e364f9672202"
  },
  "landing": false,
  "public": true,
  "id": "sdk_js_3.1",
  "type": "sdk",
  "pdf_link": "",
  "html_link": "/sippo-sdk_js/JT/html/index.html",
  "name": "SippoSDK Javascript",
  "label_name": "Javascript SDK guide",
  "description": "For web Sippo applications",
  "product": "Wac",
  "version": "3.1",
  "__v": 0
} {
  "_id": {
    "$oid": "5dc2b61e28c7e364f9672203"
  },
  "landing": false,
  "public": true,
  "id": "wac_api_rest_3.1",
  "type": "api",
  "pdf_link": "",
  "html_link": "/sippo-api_rest/html/index.html",
  "name": "Sippo REST API",
  "label_name": "REST API guide",
  "description": "For third party apps that consume Sippo wac information and management",
  "product": "Wac",
  "version": "3.1",
  "__v": 0
}
